{
  "$schema": "../../node_modules/nx/schemas/project-schema.json",
  "sourceRoot": "apps/budget-e2e/src",
  "projectType": "application",
  "targets": {
    "e2e": {
      "executor": "@nrwl/cypress:cypress",
      "options": {
        "cypressConfig": "apps/budget-e2e/cypress.config.ts",
        "devServerTarget": "budget:serve:development",
        "testingType": "e2e"
      },
      "configurations": {
        "production": {
          "devServerTarget": "budget:serve:production"
        }
      }
    },
    "lint": {
      "executor": "@nrwl/linter:eslint",
      "outputs": [
        "{options.outputFile}"
      ],
      "options": {
        "lintFilePatterns": [
          "apps/budget-e2e/**/*.{js,ts}"
        ]
      }
    }
  },
  "tags": [],
  "implicitDependencies": [
    "budget"
  ]
}
